Демонстрация пакетов readr и tydyr
…
## See spec(...) for full column specifications.

## Warning in rbind(names(probs), probs_f): number of columns of result is not
## a multiple of vector length (arg 1)

## Warning: 13 parsing failures.
## row # A tibble: 5 x 5 col     row col   expected   actual     file                   expected   <int> <chr> <chr>      <chr>      <chr>                  actual 1    29 <NA>  64 columns 65 columns 'world_population.csv' file 2    50 <NA>  64 columns 65 columns 'world_population.csv' row 3    67 <NA>  64 columns 65 columns 'world_population.csv' col 4    76 <NA>  64 columns 65 columns 'world_population.csv' expected 5    99 <NA>  64 columns 65 columns 'world_population.csv'
## ... ................. ... .......................................................... ........ .......................................................... ...... .......................................................... .... .......................................................... ... .......................................................... ... .......................................................... ........ ..........................................................
## See problems(...) for more details.

print(world_population,n=14)

## # A tibble: 214 x 64
##    COUNTRY COUNTRY_CODE INDICATOR_NAME INDICATOR_CODE `1960` `1961` `1962`
##    <chr>   <chr>        <chr>          <chr>          <chr>   <int>  <int>
##  1 Bermuda BMU          Population (T… SP.POP.TOTL    44400  4.55e4 4.66e4
##  2 Bolivia BOL          Population (T… SP.POP.TOTL    33531… 3.43e6 3.51e6
##  3 Brazil  BRA          Population (T… SP.POP.TOTL    72775… 7.50e7 7.73e7
##  4 Barbad… BRB          Population (T… SP.POP.TOTL    230858 2.32e5 2.33e5
##  5 Brunei… BRN          Population (T… SP.POP.TOTL    81817  8.57e4 8.96e4
##  6 Bhutan  BTN          Population (T… SP.POP.TOTL    224155 2.29e5 2.35e5
##  7 Botswa… BWA          Population (T… SP.POP.TOTL    524173 5.37e5 5.50e5
##  8 Croatia HRV          Population (T… SP.POP.TOTL    41400… 4.17e6 4.20e6
##  9 Haiti   HTI          Population (T… SP.POP.TOTL    38692… 3.95e6 4.03e6
## 10 Hungary HUN          Population (T… SP.POP.TOTL    99839… 1.00e7 1.01e7
## 11 Indone… IDN          Population (T… SP.POP.TOTL    88692… 9.09e7 9.31e7
## 12 Isle o… IMN          Population (T… SP.POP.TOTL    48441  4.84e4 4.86e4
## 13 India   IND          Population (T… SP.POP.TOTL    44959… 4.59e8 4.68e8
## 14 Ireland IRL          Population (T… SP.POP.TOTL    28286… 2.82e6 2.84e6
## # ... with 200 more rows, and 57 more variables: `1963` <int>,
## #   `1964` <int>, `1965` <int>, `1966` <int>, `1967` <int>, `1968` <int>,
## #   `1969` <int>, `1970` <int>, `1971` <int>, `1972` <int>, `1973` <int>,
## #   `1974` <int>, `1975` <int>, `1976` <int>, `1977` <int>, `1978` <int>,
## #   `1979` <int>, `1980` <int>, `1981` <int>, `1982` <int>, `1983` <int>,
## #   `1984` <int>, `1985` <int>, `1986` <int>, `1987` <int>, `1988` <int>,
## #   `1989` <int>, `1990` <int>, `1991` <int>, `1992` <int>, `1993` <int>,
## #   `1994` <int>, `1995` <int>, `1996` <int>, `1997` <int>, `1998` <int>,
## #   `1999` <int>, `2000` <int>, `2001` <int>, `2002` <int>, `2003` <int>,
…
Используем tidyr

long_world_population <- tidyr::gather(world_population,year, population,
                                       -c(COUNTRY,COUNTRY_CODE,INDICATOR_NAME,
                                          INDICATOR_CODE))

head(long_world_population,20)

Удалим столбцы

clean_world_population <-  long_world_population %>% 
          select( -starts_with("INDICATOR")) 
print(clean_world_population)

## # A tibble: 12,840 x 4
##    COUNTRY           COUNTRY_CODE year  population
##    <chr>             <chr>        <chr> <chr>     
##  1 Bermuda           BMU          1960  44400     
##  2 Bolivia           BOL          1960  3353125   
##  3 Brazil            BRA          1960  72775883  
##  4 Barbados          BRB          1960  230858    
##  5 Brunei Darussalam BRN          1960  81817     
##  6 Bhutan            BTN          1960  224155    
##  7 Botswana          BWA          1960  524173    
##  8 Croatia           HRV          1960  4140000   
##  9 Haiti             HTI          1960  3869288   
## 10 Hungary           HUN          1960  9983967   
## # ... with 12,830 more rows
